# 3ds Max Wavefront OBJ Exporter v0.97b - (c)2007 guruware
# File Created: 16.04.2016 19:10:53

newmtl Material__27
	Ns 29.999998
	Ni 1.500000
	d 1.000000
	Tr 0.000000
	Tf 1.000000 1.000000 1.000000 
	illum 1
	Ka 0.286275 0.286275 0.286275
	Kd 0.286275 0.286275 0.286275
	Ks 0.495000 0.495000 0.495000
	Ke 0.000000 0.000000 0.000000
